{
  "project": {
    "version": "1.5.13",
    "name": "GenesisUI"
  },
  "apps": [
    {
      "root": "src",
      "outDir": "dist",
      "assets": ["assets"],
      "index": "index.html",
      "main": "main.ts",
      "test": "test.ts",
      "tsconfig": "tsconfig.json",
      "prefix": "app",
      "mobile": false,
      "styles": [
        "scss/style.scss"
      ],
      "scripts": [
        "../node_modules/chart.js/dist/Chart.bundle.min.js",
        "../node_modules/chart.js/dist/Chart.min.js"
      ],
      "environmentSource": "environments/environment.ts",
      "environments": {
        "dev": "environments/environment.ts",
        "prod": "environments/environment.prod.ts"
      }
    }
  ],
  "addons": [],
  "packages": [],
  "e2e": {
    "protractor": {
      "config": "./protractor.conf.js"
    }
  },
  "test": {
    "karma": {
      "config": "./karma.conf.js"
    }
  },
  "defaults": {
    "styleExt": "scss",
    "prefixInterfaces": false
  }
}